{
  "login": {
    "riceball101":"iloverice",
    "jsun2018": "jessesun",
    "x":"y"
  },

  "names": {
    "charities": [
      {"name": "Red Cross Canada", "description": "The Canadian Red Cross mission is to improve the lives of vulnerable people by mobilizing the power of humanity in Canada and around the world.",
        "key": 1,
        "needs": ["Jackets", "Mittens", "Canned Beans"],
        "address": "5700 Cancross Ct, Mississauga, ON L5R 3E9",
        "number": "905-555-5555",
        "food": true,
        "shelter": true,
        "environment": true,
        "health": true,
        "education": false,
        "arts": false,

      },
      {"name": "Kids Against Hunger", "description": "Kids Against Hunger is a nonprofit organization with the mission to significantly reduce the number of hungry children in the United States and to feed starving children throughout the world.",
        "key": 2,
        "address": "1006 N 20th St, Omaha, NE 68102",
        "number": "905-555-2355",
        "food": true,
        "shelter": false,
        "environment": false,
        "health": true,
        "education": false,
        "arts": false,
      },
      {"name": "Jesse's Bar Burrito Fund", "description": "Help your boy purchase a large chicken burrito during this advent season!",
        "key": 3,
        "address": "40 Bristol Rd E, Mississauga, ON L4Z 3K8",
        "number": "905-555-1209",
        "food": true,
        "shelter": false,
        "environment": false,
        "health": false,
        "education": false,
        "arts": false,
      },
      {"name": "Save the Bears", "description": "Save the Bears is a nonprofit organization that needs your help to spread awareness about the dangers of global warming.",
        "key": 4,
        "food": false,
        "shelter": false,
        "environment": true,
        "health": false,
        "education": false,
        "arts": false,
      }
    ]
  },
}
